%YAML 1.1
%TAG !u! tag:unity3d.com,2011:
--- !u!114 &11400000
MonoBehaviour:
  m_ObjectHideFlags: 0
  m_CorrespondingSourceObject: {fileID: 0}
  m_PrefabInstance: {fileID: 0}
  m_PrefabAsset: {fileID: 0}
  m_GameObject: {fileID: 0}
  m_Enabled: 1
  m_EditorHideFlags: 0
  m_Script: {fileID: -1320632787, guid: 1eea3bf15bb7ddb4582c462beee0ad13, type: 3}
  m_Name: ProjectSettings
  m_EditorClassIdentifier: 
  _data:
    _json: '{"dictionary":{"projectSetupCompleted":{"$content":true,"$type":"System.Boolean"},"savedVersion":{"major":1,"minor":4,"patch":12,"label":null,"increment":0,"$type":"Ludiq.SemanticVersion"},"aotSafeMode":{"$content":true,"$type":"System.Boolean"},"favoriteMembers":{"$content":[],"$type":"System.Collections.Generic.HashSet`1[[Ludiq.Member,
      Ludiq.Core.Runtime, Version=0.0.0.0, Culture=neutral, PublicKeyToken=null]]"},"assemblyOptions":{"$content":["mscorlib","Assembly-CSharp-firstpass","Assembly-CSharp","UnityEngine","UnityEngine.CoreModule","UnityEngine.InputModule","UnityEngine.ClusterInputModule","UnityEngine.InputLegacyModule","UnityEngine.PhysicsModule","UnityEngine.Physics2DModule","UnityEngine.TerrainPhysicsModule","UnityEngine.VehiclesModule","UnityEngine.AudioModule","UnityEngine.AnimationModule","UnityEngine.VideoModule","UnityEngine.DirectorModule","UnityEngine.Timeline","UnityEngine.ParticleSystemModule","UnityEngine.ParticlesLegacyModule","UnityEngine.WindModule","UnityEngine.ClothModule","UnityEngine.TilemapModule","UnityEngine.SpriteMaskModule","UnityEngine.TerrainModule","UnityEngine.ImageConversionModule","UnityEngine.TextRenderingModule","UnityEngine.ClusterRendererModule","UnityEngine.ScreenCaptureModule","UnityEngine.AIModule","UnityEngine.UI","UnityEngine.UIModule","UnityEngine.IMGUIModule","UnityEngine.UIElementsModule","UnityEngine.StyleSheetsModule","UnityEngine.VR","UnityEngine.VRModule","UnityEngine.ARModule","UnityEngine.HoloLens","UnityEngine.SpatialTracking","UnityEngine.GoogleAudioSpatializer","UnityEngine.Networking","UnityEngine.Analytics","UnityEngine.Advertisements","UnityEngine.Purchasing","UnityEngine.UnityConnectModule","UnityEngine.UnityAnalyticsModule","UnityEngine.GameCenterModule","UnityEngine.AccessibilityModule","UnityEngine.AndroidJNIModule","UnityEngine.AssetBundleModule","UnityEngine.FileSystemHttpModule","UnityEngine.JSONSerializeModule","UnityEngine.UmbraModule","Ludiq.Core.Runtime","Ludiq.Graphs.Runtime","Bolt.Core.Runtime","Bolt.State.Runtime","Bolt.Flow.Runtime","Cinemachine","com.unity.cinemachine.editor","Unity.VisualEffectGraph.Editor","Unity.VisualEffectGraph.Runtime","UnityEngine.VFXModule","Unity.TextMeshPro","Unity.TextMeshPro.Editor"],"$type":"System.Collections.Generic.List`1[[Ludiq.LooseAssemblyName,
      Ludiq.Core.Runtime, Version=0.0.0.0, Culture=neutral, PublicKeyToken=null]]"},"typeOptions":{"$content":["System.Object","System.Boolean","System.Int32","System.Single","System.String","UnityEngine.Vector2","UnityEngine.Vector3","UnityEngine.Vector4","UnityEngine.Quaternion","UnityEngine.Matrix4x4","UnityEngine.Rect","UnityEngine.Bounds","UnityEngine.Color","UnityEngine.AnimationCurve","UnityEngine.LayerMask","UnityEngine.Ray","UnityEngine.Ray2D","UnityEngine.RaycastHit","UnityEngine.RaycastHit2D","UnityEngine.ContactPoint","UnityEngine.ContactPoint2D","UnityEngine.ParticleCollisionEvent","UnityEngine.SceneManagement.Scene","UnityEngine.Application","UnityEngine.Resources","UnityEngine.Mathf","UnityEngine.Debug","UnityEngine.Input","UnityEngine.Touch","UnityEngine.Screen","UnityEngine.Cursor","UnityEngine.Time","UnityEngine.Random","UnityEngine.Physics","UnityEngine.Physics2D","UnityEngine.SceneManagement.SceneManager","UnityEngine.GUI","UnityEngine.GUILayout","UnityEngine.GUIUtility","UnityEngine.Audio.AudioMixerGroup","UnityEngine.AI.NavMesh","UnityEngine.Gizmos","UnityEngine.AnimatorStateInfo","UnityEngine.EventSystems.BaseEventData","UnityEngine.EventSystems.PointerEventData","UnityEngine.EventSystems.AxisEventData","System.Collections.IList","System.Collections.IDictionary","Ludiq.AotList","Ludiq.AotDictionary","System.Exception","UnityEngine.Microphone"],"$type":"System.Collections.Generic.List`1[[System.Type,
      mscorlib, Version=4.0.0.0, Culture=neutral, PublicKeyToken=b77a5c561934e089]]"}}}'
    _objectReferences: []
